{
    "客戶名稱": "customer_id",
    "訂單單號": "order_id", 
    "單號": "project_name",
    "工單類別": "project_type",
    "工令日期": "order_date", 
    "預交日期": "due",
    "機種編號": "product_name", 
    "製造數量": "qty",
    "大站名稱": "process_name",
    "工序編號": "job_sequence", 
    "工序流程": "job_name",
    "製程名稱": "jlb_name",
    "需求資源類別": "multi_resouces",
    "製程規則": "jlb_rule",
    "製程參數": "job_parameter",
    "Sourcing": "sourcing", 
    "預估工時(分)": "est_time",
    "工作日範本": "calendar_name",
    "工作日": "working_days",
    "工作時間範本": "hours_name",
    "工作時間": "working_hours", 
    "休息時間": "break_time",
    "廠商代碼": "resource_name",
    "人員或機台名稱": "resource_name",
    "類型": "resource_type",
    "Capacity": "capacity",
    "製程能力": "job_name",
    "材料名稱": "material_name",
    "類別": "material_type", 
    "備料時間": "lead_time",
    "描述": "material_describtion",
    "庫存數量": "inventory",
    "最低庫存數量": "min_inventory",
    "單位": "unit",
    "index":"index",
    "批號": "lot_nbr",
    "預計結束": "plan_end_time",
    "預計開始": "plan_start_time", 
    "實際結束":  "real_end_time", 
    "實際開始":"real_start_time", 
    "排定資源": "resource_id", 
    "途程": "route_seq",
    "資源名稱": "resource_name",
    "前置料號": "pre_product",
    "detail":"detail"
}