{
    "project_db": {
        "PID0": {
            "updated_on": "2021-04-19 17:26",
            "status": "New",
            "customer_id": "CU-178",
            "due": "2021-03-08",
            "project_name": "MA-2020120076",
            "order_id": "O-202012054",
            "_product": [
                "PRDID0"
            ],
            "project_type": "\u4e00\u822c",
            "order_date": "2021-03-03"
        },
        "PID1": {
            "updated_on": "2021-04-19 17:26",
            "status": "New",
            "customer_id": "CU-178",
            "due": "2021-03-08",
            "project_name": "MA-2020120077",
            "order_id": "O-202012055",
            "_product": [
                "PRDID1"
            ],
            "project_type": "\u4e00\u822c",
            "order_date": "2021-03-03"
        }
    },
    "process_db": {
        "PRCID0": {
            "process_name": "\u7ad9\u9ede\u4e00",
            "_job": [
                "\u88fd\u7a0b1",
                "\u88fd\u7a0b2",
                "\u88fd\u7a0b3"
            ]
        },
        "PRCID1": {
            "process_name": "\u7ad9\u9ede\u4e09",
            "_job": [
                "\u88fd\u7a0b7",
                "\u88fd\u7a0b8"
            ]
        },
        "PRCID2": {
            "process_name": "\u7ad9\u9ede\u4e8c",
            "_job": [
                "\u88fd\u7a0b4",
                "\u88fd\u7a0b5",
                "\u88fd\u7a0b6"
            ]
        }
    },
    "job_db": {
        "JID0": {
            "project_name": "MA-2020120076",
            "project_id": "PID0",
            "product_name": "OB-4586C54",
            "product_id": "PRDID0",
            "job_name": "\u88fd\u7a0b1",
            "qty": 20,
            "job_sequence": 1,
            "est_time": 15,
            "pre_product": null,
            "mother": {},
            "jlb_id": 65,
            "process_name": "\u7ad9\u9ede\u4e00",
            "primary_resource": {
                "operator": [
                    "RCID0"
                ]
            },
            "secondary_resource": {},
            "sourcing": "in-house",
            "skill": 9,
            "plan_start_time": "2021-04-22 00:00",
            "plan_end_time": "2021-04-22 00:15",
            "resource": {
                "RCID0": "H001"
            }
        },
        "JID1": {
            "project_name": "MA-2020120076",
            "project_id": "PID0",
            "product_name": "OB-4586C54",
            "product_id": "PRDID0",
            "job_name": "\u88fd\u7a0b2",
            "qty": 20,
            "job_sequence": 2,
            "est_time": 30,
            "pre_product": null,
            "mother": {},
            "jlb_id": 66,
            "process_name": "\u7ad9\u9ede\u4e00",
            "primary_resource": {
                "operator": [
                    "RCID0"
                ]
            },
            "secondary_resource": {
                "machine": [
                    "RCID4",
                    "RCID5"
                ]
            },
            "sourcing": "in-house",
            "skill": 9,
            "plan_start_time": "2021-04-22 00:15",
            "plan_end_time": "2021-04-22 00:45",
            "resource": {
                "RCID0": "H001",
                "RCID4": "M001"
            }
        },
        "JID2": {
            "project_name": "MA-2020120076",
            "project_id": "PID0",
            "product_name": "OB-4586C54",
            "product_id": "PRDID0",
            "job_name": "\u88fd\u7a0b3",
            "qty": 20,
            "job_sequence": 3,
            "est_time": 23,
            "pre_product": null,
            "mother": {},
            "jlb_id": 67,
            "process_name": "\u7ad9\u9ede\u4e00",
            "primary_resource": {
                "operator": [
                    "RCID1"
                ]
            },
            "secondary_resource": {
                "machine": [
                    "RCID5"
                ]
            },
            "sourcing": "in-house",
            "skill": 9,
            "plan_start_time": "2021-04-22 00:45",
            "plan_end_time": "2021-04-22 01:08",
            "resource": {
                "RCID1": "H002",
                "RCID5": "M002"
            }
        },
        "JID3": {
            "project_name": "MA-2020120076",
            "project_id": "PID0",
            "product_name": "OB-4586C54",
            "product_id": "PRDID0",
            "job_name": "\u88fd\u7a0b4",
            "qty": 20,
            "job_sequence": 4,
            "est_time": 29,
            "pre_product": null,
            "mother": {},
            "jlb_id": 68,
            "process_name": "\u7ad9\u9ede\u4e8c",
            "primary_resource": {
                "machine": [
                    "RCID6"
                ]
            },
            "secondary_resource": {},
            "sourcing": "in-house",
            "skill": 9,
            "plan_start_time": "2021-04-22 01:08",
            "plan_end_time": "2021-04-22 01:37",
            "resource": {
                "RCID6": "M003"
            }
        },
        "JID4": {
            "project_name": "MA-2020120076",
            "project_id": "PID0",
            "product_name": "OB-4586C54",
            "product_id": "PRDID0",
            "job_name": "\u88fd\u7a0b5",
            "qty": 20,
            "job_sequence": 4,
            "est_time": 23,
            "pre_product": null,
            "mother": {},
            "jlb_id": 69,
            "process_name": "\u7ad9\u9ede\u4e8c",
            "primary_resource": {
                "machine": [
                    "RCID7"
                ]
            },
            "secondary_resource": {},
            "sourcing": "in-house",
            "skill": 9,
            "plan_start_time": "2021-04-22 01:08",
            "plan_end_time": "2021-04-22 01:31",
            "resource": {
                "RCID7": "M004"
            }
        },
        "JID5": {
            "project_name": "MA-2020120076",
            "project_id": "PID0",
            "product_name": "OB-4586C54",
            "product_id": "PRDID0",
            "job_name": "\u88fd\u7a0b6",
            "qty": 20,
            "job_sequence": 4,
            "est_time": 45,
            "pre_product": null,
            "mother": {},
            "jlb_id": 70,
            "process_name": "\u7ad9\u9ede\u4e8c",
            "primary_resource": {
                "machine": [
                    "RCID8"
                ]
            },
            "secondary_resource": {},
            "sourcing": "in-house",
            "skill": 9,
            "plan_start_time": "2021-04-22 01:08",
            "plan_end_time": "2021-04-22 01:53",
            "resource": {
                "RCID8": "M005"
            }
        },
        "JID6": {
            "project_name": "MA-2020120076",
            "project_id": "PID0",
            "product_name": "OB-4586C54",
            "product_id": "PRDID0",
            "job_name": "\u88fd\u7a0b7",
            "qty": 20,
            "job_sequence": 5,
            "est_time": 900,
            "pre_product": null,
            "mother": {},
            "jlb_id": 71,
            "process_name": "\u7ad9\u9ede\u4e09",
            "primary_resource": {
                "vendor": [
                    "RCID12"
                ]
            },
            "secondary_resource": {},
            "sourcing": "out-sourcing",
            "skill": 9,
            "plan_start_time": "2021-04-22 01:53",
            "plan_end_time": "2021-04-24 02:53",
            "resource": {
                "RCID12": "vendor1"
            }
        },
        "JID7": {
            "project_name": "MA-2020120076",
            "project_id": "PID0",
            "product_name": "OB-4586C54",
            "product_id": "PRDID0",
            "job_name": "\u88fd\u7a0b8",
            "qty": 20,
            "job_sequence": 6,
            "est_time": 35,
            "pre_product": null,
            "mother": {},
            "jlb_id": 72,
            "process_name": "\u7ad9\u9ede\u4e09",
            "primary_resource": {
                "operator": [
                    "RCID3"
                ]
            },
            "secondary_resource": {
                "machine": [
                    "RCID10",
                    "RCID11"
                ]
            },
            "sourcing": "in-house",
            "skill": 9,
            "plan_start_time": "2021-04-24 02:53",
            "plan_end_time": "2021-04-24 03:28",
            "resource": {
                "RCID3": "H004",
                "RCID10": "M007"
            }
        },
        "JID8": {
            "project_name": "MA-2020120077",
            "project_id": "PID1",
            "product_name": "OB-4586C56",
            "product_id": "PRDID1",
            "job_name": "\u88fd\u7a0b1",
            "qty": 20,
            "job_sequence": 1,
            "est_time": 15,
            "pre_product": null,
            "mother": {},
            "jlb_id": 65,
            "process_name": "\u7ad9\u9ede\u4e00",
            "primary_resource": {
                "operator": [
                    "RCID0"
                ]
            },
            "secondary_resource": {},
            "sourcing": "in-house",
            "skill": 9,
            "plan_start_time": "2021-04-24 00:00",
            "plan_end_time": "2021-04-24 00:15",
            "resource": {
                "RCID0": "H001"
            }
        },
        "JID9": {
            "project_name": "MA-2020120077",
            "project_id": "PID1",
            "product_name": "OB-4586C56",
            "product_id": "PRDID1",
            "job_name": "\u88fd\u7a0b2",
            "qty": 20,
            "job_sequence": 2,
            "est_time": 30,
            "pre_product": null,
            "mother": {},
            "jlb_id": 66,
            "process_name": "\u7ad9\u9ede\u4e00",
            "primary_resource": {
                "operator": [
                    "RCID0"
                ]
            },
            "secondary_resource": {
                "machine": [
                    "RCID4",
                    "RCID5"
                ]
            },
            "sourcing": "in-house",
            "skill": 9,
            "plan_start_time": "2021-04-24 00:15",
            "plan_end_time": "2021-04-24 00:45",
            "resource": {
                "RCID0": "H001",
                "RCID4": "M001"
            }
        },
        "JID10": {
            "project_name": "MA-2020120077",
            "project_id": "PID1",
            "product_name": "OB-4586C56",
            "product_id": "PRDID1",
            "job_name": "\u88fd\u7a0b3",
            "qty": 20,
            "job_sequence": 3,
            "est_time": 23,
            "pre_product": null,
            "mother": {},
            "jlb_id": 67,
            "process_name": "\u7ad9\u9ede\u4e00",
            "primary_resource": {
                "operator": [
                    "RCID1"
                ]
            },
            "secondary_resource": {
                "machine": [
                    "RCID5"
                ]
            },
            "sourcing": "in-house",
            "skill": 9,
            "plan_start_time": "2021-04-24 00:45",
            "plan_end_time": "2021-04-24 01:08",
            "resource": {
                "RCID1": "H002",
                "RCID5": "M002"
            }
        },
        "JID11": {
            "project_name": "MA-2020120077",
            "project_id": "PID1",
            "product_name": "OB-4586C56",
            "product_id": "PRDID1",
            "job_name": "\u88fd\u7a0b4",
            "qty": 20,
            "job_sequence": 4,
            "est_time": 29,
            "pre_product": null,
            "mother": {},
            "jlb_id": 68,
            "process_name": "\u7ad9\u9ede\u4e8c",
            "primary_resource": {
                "machine": [
                    "RCID6"
                ]
            },
            "secondary_resource": {},
            "sourcing": "in-house",
            "skill": 9,
            "plan_start_time": "2021-04-24 01:08",
            "plan_end_time": "2021-04-24 01:37",
            "resource": {
                "RCID6": "M003"
            }
        },
        "JID12": {
            "project_name": "MA-2020120077",
            "project_id": "PID1",
            "product_name": "OB-4586C56",
            "product_id": "PRDID1",
            "job_name": "\u88fd\u7a0b5",
            "qty": 20,
            "job_sequence": 4,
            "est_time": 23,
            "pre_product": null,
            "mother": {},
            "jlb_id": 69,
            "process_name": "\u7ad9\u9ede\u4e8c",
            "primary_resource": {
                "machine": [
                    "RCID7"
                ]
            },
            "secondary_resource": {},
            "sourcing": "in-house",
            "skill": 9,
            "plan_start_time": "2021-04-24 01:08",
            "plan_end_time": "2021-04-24 01:31",
            "resource": {
                "RCID7": "M004"
            }
        },
        "JID13": {
            "project_name": "MA-2020120077",
            "project_id": "PID1",
            "product_name": "OB-4586C56",
            "product_id": "PRDID1",
            "job_name": "\u88fd\u7a0b6",
            "qty": 20,
            "job_sequence": 4,
            "est_time": 45,
            "pre_product": null,
            "mother": {},
            "jlb_id": 70,
            "process_name": "\u7ad9\u9ede\u4e8c",
            "primary_resource": {
                "machine": [
                    "RCID8"
                ]
            },
            "secondary_resource": {},
            "sourcing": "in-house",
            "skill": 9,
            "plan_start_time": "2021-04-24 01:08",
            "plan_end_time": "2021-04-24 01:53",
            "resource": {
                "RCID8": "M005"
            }
        },
        "JID14": {
            "project_name": "MA-2020120077",
            "project_id": "PID1",
            "product_name": "OB-4586C56",
            "product_id": "PRDID1",
            "job_name": "\u88fd\u7a0b7",
            "qty": 20,
            "job_sequence": 5,
            "est_time": 900,
            "pre_product": null,
            "mother": {},
            "jlb_id": 71,
            "process_name": "\u7ad9\u9ede\u4e09",
            "primary_resource": {
                "vendor": [
                    "RCID12"
                ]
            },
            "secondary_resource": {},
            "sourcing": "out-sourcing",
            "skill": 9,
            "plan_start_time": "2021-04-24 01:53",
            "plan_end_time": "2021-04-26 02:53",
            "resource": {
                "RCID12": "vendor1"
            }
        },
        "JID15": {
            "project_name": "MA-2020120077",
            "project_id": "PID1",
            "product_name": "OB-4586C56",
            "product_id": "PRDID1",
            "job_name": "\u88fd\u7a0b8",
            "qty": 20,
            "job_sequence": 6,
            "est_time": 35,
            "pre_product": null,
            "mother": {},
            "jlb_id": 72,
            "process_name": "\u7ad9\u9ede\u4e09",
            "primary_resource": {
                "operator": [
                    "RCID3"
                ]
            },
            "secondary_resource": {
                "machine": [
                    "RCID10",
                    "RCID11"
                ]
            },
            "sourcing": "in-house",
            "skill": 9,
            "plan_start_time": "2021-04-26 02:53",
            "plan_end_time": "2021-04-26 04:28",
            "resource": {
                "RCID3": "H004",
                "RCID10": "M007"
            }
        }
    },
    "resource_db": {
        "RCID0": {
            "resource_name": "H001",
            "resource_type": "operator",
            "job_name": [
                "\u88fd\u7a0b1",
                "\u88fd\u7a0b2"
            ],
            "virtual_resource": false,
            "in_between": true,
            "working_day": "WDID0",
            "allow_overlapped": false,
            "working_hours": "WHID2",
            "capacity": 1,
            "operator_skill": 9,
            "working_type": null
        },
        "RCID1": {
            "resource_name": "H002",
            "resource_type": "operator",
            "job_name": [
                "\u88fd\u7a0b3"
            ],
            "virtual_resource": false,
            "in_between": true,
            "working_day": "WDID0",
            "allow_overlapped": false,
            "working_hours": "WHID2",
            "capacity": 1,
            "operator_skill": 9,
            "working_type": null
        },
        "RCID2": {
            "resource_name": "H003",
            "resource_type": "operator",
            "job_name": [
                "\u88fd\u7a0b7"
            ],
            "virtual_resource": false,
            "in_between": true,
            "working_day": "WDID0",
            "allow_overlapped": false,
            "working_hours": "WHID2",
            "capacity": 1,
            "operator_skill": 9,
            "working_type": null
        },
        "RCID3": {
            "resource_name": "H004",
            "resource_type": "operator",
            "job_name": [
                "\u88fd\u7a0b8"
            ],
            "virtual_resource": false,
            "in_between": true,
            "working_day": "WDID0",
            "allow_overlapped": false,
            "working_hours": "WHID2",
            "capacity": 1,
            "operator_skill": 9,
            "working_type": null
        },
        "RCID4": {
            "resource_name": "M001",
            "resource_type": "machine",
            "job_name": [
                "\u88fd\u7a0b2"
            ],
            "virtual_resource": false,
            "in_between": true,
            "working_day": "WDID0",
            "allow_overlapped": false,
            "working_hours": "WHID2",
            "capacity": 1,
            "operator_skill": 9,
            "working_type": null
        },
        "RCID5": {
            "resource_name": "M002",
            "resource_type": "machine",
            "job_name": [
                "\u88fd\u7a0b2",
                "\u88fd\u7a0b3"
            ],
            "virtual_resource": false,
            "in_between": true,
            "working_day": "WDID0",
            "allow_overlapped": false,
            "working_hours": "WHID2",
            "capacity": 1,
            "operator_skill": 9,
            "working_type": null
        },
        "RCID6": {
            "resource_name": "M003",
            "resource_type": "machine",
            "job_name": [
                "\u88fd\u7a0b4"
            ],
            "virtual_resource": false,
            "in_between": true,
            "working_day": "WDID0",
            "allow_overlapped": false,
            "working_hours": "WHID2",
            "capacity": 1,
            "operator_skill": 9,
            "working_type": null
        },
        "RCID7": {
            "resource_name": "M004",
            "resource_type": "machine",
            "job_name": [
                "\u88fd\u7a0b5"
            ],
            "virtual_resource": false,
            "in_between": true,
            "working_day": "WDID0",
            "allow_overlapped": false,
            "working_hours": "WHID2",
            "capacity": 1,
            "operator_skill": 9,
            "working_type": null
        },
        "RCID8": {
            "resource_name": "M005",
            "resource_type": "machine",
            "job_name": [
                "\u88fd\u7a0b6"
            ],
            "virtual_resource": false,
            "in_between": true,
            "working_day": "WDID0",
            "allow_overlapped": false,
            "working_hours": "WHID2",
            "capacity": 1,
            "operator_skill": 9,
            "working_type": null
        },
        "RCID9": {
            "resource_name": "M006",
            "resource_type": "machine",
            "job_name": [
                "\u88fd\u7a0b7"
            ],
            "virtual_resource": false,
            "in_between": true,
            "working_day": "WDID0",
            "allow_overlapped": false,
            "working_hours": "WHID2",
            "capacity": 1,
            "operator_skill": 9,
            "working_type": null
        },
        "RCID10": {
            "resource_name": "M007",
            "resource_type": "machine",
            "job_name": [
                "\u88fd\u7a0b8"
            ],
            "virtual_resource": false,
            "in_between": true,
            "working_day": "WDID0",
            "allow_overlapped": false,
            "working_hours": "WHID2",
            "capacity": 1,
            "operator_skill": 9,
            "working_type": null
        },
        "RCID11": {
            "resource_name": "M008",
            "resource_type": "machine",
            "job_name": [
                "\u88fd\u7a0b8"
            ],
            "virtual_resource": false,
            "in_between": true,
            "working_day": "WDID0",
            "allow_overlapped": false,
            "working_hours": "WHID2",
            "capacity": 1,
            "operator_skill": 9,
            "working_type": null
        },
        "RCID12": {
            "resource_name": "vendor1",
            "resource_type": "vendor",
            "job_name": [
                "\u88fd\u7a0b7"
            ],
            "virtual_resource": false,
            "in_between": true,
            "working_day": "WDID0",
            "allow_overlapped": false,
            "working_hours": "WHID2",
            "capacity": 10,
            "operator_skill": 9,
            "working_type": null
        },
        "RCID13": {
            "resource_name": "vendor2",
            "resource_type": "vendor",
            "job_name": [
                "\u88fd\u7a0b8"
            ],
            "virtual_resource": false,
            "in_between": true,
            "working_day": "WDID0",
            "allow_overlapped": false,
            "working_hours": "WHID2",
            "capacity": 10,
            "operator_skill": 9,
            "working_type": null
        }
    },
    "product_db": {
        "PRDID0": {
            "project_id": "PID0",
            "mother": {},
            "_jobID_list": {
                "1": [
                    "JID0"
                ],
                "2": [
                    "JID1"
                ],
                "3": [
                    "JID2"
                ],
                "4": [
                    "JID3",
                    "JID4",
                    "JID5"
                ],
                "5": [
                    "JID6"
                ],
                "6": [
                    "JID7"
                ]
            },
            "_process": [],
            "product_name": "OB-4586C54"
        },
        "PRDID1": {
            "project_id": "PID1",
            "mother": {},
            "_jobID_list": {
                "1": [
                    "JID8"
                ],
                "2": [
                    "JID9"
                ],
                "3": [
                    "JID10"
                ],
                "4": [
                    "JID11",
                    "JID12",
                    "JID13"
                ],
                "5": [
                    "JID14"
                ],
                "6": [
                    "JID15"
                ]
            },
            "_process": [],
            "product_name": "OB-4586C56"
        }
    },
    "workingdays_db": {
        "WDID0": {
            "working_days": [
                "2021-01-01",
                "2021-01-02",
                "2021-01-03",
                "2021-01-04",
                "2021-01-05",
                "2021-01-06",
                "2021-01-07",
                "2021-01-08",
                "2021-01-09",
                "2021-01-10",
                "2021-01-11",
                "2021-01-12",
                "2021-01-13",
                "2021-01-14",
                "2021-01-15",
                "2021-01-16",
                "2021-01-17",
                "2021-01-18",
                "2021-01-19",
                "2021-01-20",
                "2021-01-21",
                "2021-01-22",
                "2021-01-23",
                "2021-01-24",
                "2021-01-25",
                "2021-01-26",
                "2021-01-27",
                "2021-01-28",
                "2021-01-29",
                "2021-01-30",
                "2021-01-31",
                "2021-02-01",
                "2021-02-02",
                "2021-02-03",
                "2021-02-04",
                "2021-02-05",
                "2021-02-06",
                "2021-02-07",
                "2021-02-08",
                "2021-02-09",
                "2021-02-10",
                "2021-02-11",
                "2021-02-12",
                "2021-02-13",
                "2021-02-14",
                "2021-02-15",
                "2021-02-16",
                "2021-02-17",
                "2021-02-18",
                "2021-02-19",
                "2021-02-20",
                "2021-02-21",
                "2021-02-22",
                "2021-02-23",
                "2021-02-24",
                "2021-02-25",
                "2021-02-26",
                "2021-02-27",
                "2021-02-28",
                "2021-03-01",
                "2021-03-02",
                "2021-03-03",
                "2021-03-04",
                "2021-03-05",
                "2021-03-06",
                "2021-03-07",
                "2021-03-08",
                "2021-03-09",
                "2021-03-10",
                "2021-03-11",
                "2021-03-12",
                "2021-03-13",
                "2021-03-14",
                "2021-03-15",
                "2021-03-16",
                "2021-03-17",
                "2021-03-18",
                "2021-03-19",
                "2021-03-20",
                "2021-03-21",
                "2021-03-22",
                "2021-03-23",
                "2021-03-24",
                "2021-03-25",
                "2021-03-26",
                "2021-03-27",
                "2021-03-28",
                "2021-03-29",
                "2021-03-30",
                "2021-03-31",
                "2021-04-01",
                "2021-04-02",
                "2021-04-03",
                "2021-04-04",
                "2021-04-05",
                "2021-04-06",
                "2021-04-07",
                "2021-04-08",
                "2021-04-09",
                "2021-04-10",
                "2021-04-11",
                "2021-04-12",
                "2021-04-13",
                "2021-04-14",
                "2021-04-15",
                "2021-04-16",
                "2021-04-17",
                "2021-04-18",
                "2021-04-19",
                "2021-04-20",
                "2021-04-21",
                "2021-04-22",
                "2021-04-23",
                "2021-04-24",
                "2021-04-25",
                "2021-04-26",
                "2021-04-27",
                "2021-04-28",
                "2021-04-29",
                "2021-04-30",
                "2021-05-01",
                "2021-05-02",
                "2021-05-03",
                "2021-05-04",
                "2021-05-05",
                "2021-05-06",
                "2021-05-07",
                "2021-05-08",
                "2021-05-09",
                "2021-05-10",
                "2021-05-11",
                "2021-05-12",
                "2021-05-13",
                "2021-05-14",
                "2021-05-15",
                "2021-05-16",
                "2021-05-17",
                "2021-05-18",
                "2021-05-19",
                "2021-05-20",
                "2021-05-21",
                "2021-05-22",
                "2021-05-23",
                "2021-05-24",
                "2021-05-25",
                "2021-05-26",
                "2021-05-27",
                "2021-05-28",
                "2021-05-29",
                "2021-05-30",
                "2021-05-31",
                "2021-06-01",
                "2021-06-02",
                "2021-06-03",
                "2021-06-04",
                "2021-06-05",
                "2021-06-06",
                "2021-06-07",
                "2021-06-08",
                "2021-06-09",
                "2021-06-10",
                "2021-06-11",
                "2021-06-12",
                "2021-06-13",
                "2021-06-14",
                "2021-06-15",
                "2021-06-16",
                "2021-06-17",
                "2021-06-18",
                "2021-06-19",
                "2021-06-20",
                "2021-06-21",
                "2021-06-22",
                "2021-06-23",
                "2021-06-24",
                "2021-06-25",
                "2021-06-26",
                "2021-06-27",
                "2021-06-28",
                "2021-06-29",
                "2021-06-30"
            ],
            "calendar_name": "Factory_calendar"
        },
        "WDID1": {
            "working_days": [
                "2021-01-04",
                "2021-01-05",
                "2021-01-06",
                "2021-01-07",
                "2021-01-08",
                "2021-01-11",
                "2021-01-12",
                "2021-01-13",
                "2021-01-14",
                "2021-01-15",
                "2021-01-18",
                "2021-01-19",
                "2021-01-20",
                "2021-01-21",
                "2021-01-22",
                "2021-01-25",
                "2021-01-26",
                "2021-01-27",
                "2021-01-28",
                "2021-01-29",
                "2021-02-01",
                "2021-02-02",
                "2021-02-03",
                "2021-02-04",
                "2021-02-05",
                "2021-02-08",
                "2021-02-09",
                "2021-02-17",
                "2021-02-18",
                "2021-02-19",
                "2021-02-22",
                "2021-02-23",
                "2021-02-24",
                "2021-02-25",
                "2021-02-26",
                "2021-03-02",
                "2021-03-03",
                "2021-03-04",
                "2021-03-05",
                "2021-03-08",
                "2021-03-09",
                "2021-03-10",
                "2021-03-11",
                "2021-03-12",
                "2021-03-15",
                "2021-03-16",
                "2021-03-17",
                "2021-03-18",
                "2021-03-19",
                "2021-03-22",
                "2021-03-23",
                "2021-03-24",
                "2021-03-25",
                "2021-03-26",
                "2021-03-29",
                "2021-03-30",
                "2021-03-31",
                "2021-04-01",
                "2021-04-02",
                "2021-04-06",
                "2021-04-07",
                "2021-04-08",
                "2021-04-09",
                "2021-04-12",
                "2021-04-13",
                "2021-04-14",
                "2021-04-15",
                "2021-04-16",
                "2021-04-19",
                "2021-04-20",
                "2021-04-21",
                "2021-04-22",
                "2021-04-23",
                "2021-04-26",
                "2021-04-27",
                "2021-04-28",
                "2021-04-29",
                "2021-04-30",
                "2021-05-03",
                "2021-05-04",
                "2021-05-05",
                "2021-05-06",
                "2021-05-07",
                "2021-05-10",
                "2021-05-11",
                "2021-05-12",
                "2021-05-13",
                "2021-05-14",
                "2021-05-17",
                "2021-05-18",
                "2021-05-19",
                "2021-05-20",
                "2021-05-21",
                "2021-05-24",
                "2021-05-25",
                "2021-05-26",
                "2021-05-27",
                "2021-05-28",
                "2021-05-31",
                "2021-06-01",
                "2021-06-02",
                "2021-06-03",
                "2021-06-04",
                "2021-06-07",
                "2021-06-08",
                "2021-06-09",
                "2021-06-10",
                "2021-06-11",
                "2021-06-15",
                "2021-06-16",
                "2021-06-17",
                "2021-06-18",
                "2021-06-21",
                "2021-06-22",
                "2021-06-23",
                "2021-06-24",
                "2021-06-25",
                "2021-06-28",
                "2021-06-29",
                "2021-06-30",
                "2021-07-01",
                "2021-07-02",
                "2021-07-05",
                "2021-07-06",
                "2021-07-07",
                "2021-07-08",
                "2021-07-09",
                "2021-07-12",
                "2021-07-13",
                "2021-07-14",
                "2021-07-15",
                "2021-07-16",
                "2021-07-19",
                "2021-07-20",
                "2021-07-21",
                "2021-07-22",
                "2021-07-23",
                "2021-07-26",
                "2021-07-27",
                "2021-07-28",
                "2021-07-29",
                "2021-07-30",
                "2021-08-02",
                "2021-08-03",
                "2021-08-04",
                "2021-08-05",
                "2021-08-06",
                "2021-08-09",
                "2021-08-10",
                "2021-08-11",
                "2021-08-12",
                "2021-08-13",
                "2021-08-16",
                "2021-08-17",
                "2021-08-18",
                "2021-08-19",
                "2021-08-20",
                "2021-08-23",
                "2021-08-24",
                "2021-08-25",
                "2021-08-26",
                "2021-08-27",
                "2021-08-30",
                "2021-08-31",
                "2021-09-01",
                "2021-09-02",
                "2021-09-03",
                "2021-09-06",
                "2021-09-07",
                "2021-09-08",
                "2021-09-09",
                "2021-09-10",
                "2021-09-13",
                "2021-09-14",
                "2021-09-15",
                "2021-09-16",
                "2021-09-17",
                "2021-09-20",
                "2021-09-22",
                "2021-09-23",
                "2021-09-24",
                "2021-09-27",
                "2021-09-28",
                "2021-09-29",
                "2021-09-30",
                "2021-10-01",
                "2021-10-04",
                "2021-10-05",
                "2021-10-06",
                "2021-10-07",
                "2021-10-08",
                "2021-10-12",
                "2021-10-13",
                "2021-10-14",
                "2021-10-15",
                "2021-10-18",
                "2021-10-19",
                "2021-10-20",
                "2021-10-21",
                "2021-10-22",
                "2021-10-25",
                "2021-10-26",
                "2021-10-27",
                "2021-10-28",
                "2021-10-29",
                "2021-11-01",
                "2021-11-02",
                "2021-11-03",
                "2021-11-04",
                "2021-11-05",
                "2021-11-08",
                "2021-11-09",
                "2021-11-10",
                "2021-11-11",
                "2021-11-12",
                "2021-11-15",
                "2021-11-16",
                "2021-11-17",
                "2021-11-18",
                "2021-11-19",
                "2021-11-22",
                "2021-11-23",
                "2021-11-24",
                "2021-11-25",
                "2021-11-26",
                "2021-11-29",
                "2021-11-30",
                "2021-12-01",
                "2021-12-02",
                "2021-12-03",
                "2021-12-06",
                "2021-12-07",
                "2021-12-08",
                "2021-12-09",
                "2021-12-10",
                "2021-12-13",
                "2021-12-14",
                "2021-12-15",
                "2021-12-16",
                "2021-12-17",
                "2021-12-20",
                "2021-12-21",
                "2021-12-22",
                "2021-12-23",
                "2021-12-24",
                "2021-12-27",
                "2021-12-28",
                "2021-12-29",
                "2021-12-30"
            ],
            "calendar_name": "\u9031\u4f11\u4e8c\u65e5\u8207\u570b\u5b9a\u5047\u671f"
        }
    },
    "workinghours_db": {
        "WHID0": {
            "break_time": [
                "12:00-13:00"
            ],
            "hours_name": "\u65e9\u73ed",
            "working_hours": [
                "07:00-16:00"
            ]
        },
        "WHID1": {
            "break_time": [
                "12:00-13:00"
            ],
            "hours_name": "\u4e2d\u73ed",
            "working_hours": [
                "16:00-23:59"
            ]
        },
        "WHID2": {
            "break_time": [
                "12:00-13:00",
                "15:00-16:00"
            ],
            "hours_name": "\u6b63\u5e38\u73ed",
            "working_hours": [
                "08:00-17:00"
            ]
        },
        "WHID3": {
            "break_time": [
                "12:00-13:00"
            ],
            "hours_name": "\u5168\u5929",
            "working_hours": [
                "00:00-23:59"
            ]
        }
    },
    "job_lib": {
        "JLB0": {
            "process_name": "\u7ad9\u9ede\u4e00",
            "jlb_name": "\u88fd\u7a0b1",
            "index": "JLB0",
            "id": 65,
            "skill": 9,
            "_material": null,
            "primary_resource": {
                "operator": [
                    "RCID0"
                ]
            },
            "route_seq": null,
            "job_name": "\u88fd\u7a0b1",
            "sourcing": "in-house",
            "full_name": "\u7ad9\u9ede\u4e00-\u88fd\u7a0b1-\u88fd\u7a0b1-in-house",
            "secondary_resource": {}
        },
        "JLB1": {
            "process_name": "\u7ad9\u9ede\u4e00",
            "jlb_name": "\u88fd\u7a0b2",
            "index": "JLB1",
            "id": 66,
            "skill": 9,
            "_material": null,
            "primary_resource": {
                "operator": [
                    "RCID0"
                ]
            },
            "route_seq": null,
            "job_name": "\u88fd\u7a0b2",
            "sourcing": "in-house",
            "full_name": "\u7ad9\u9ede\u4e00-\u88fd\u7a0b2-\u88fd\u7a0b2-in-house",
            "secondary_resource": {
                "machine": [
                    "RCID4",
                    "RCID5"
                ]
            }
        },
        "JLB2": {
            "process_name": "\u7ad9\u9ede\u4e00",
            "jlb_name": "\u88fd\u7a0b3",
            "index": "JLB2",
            "id": 67,
            "skill": 9,
            "_material": null,
            "primary_resource": {
                "operator": [
                    "RCID1"
                ]
            },
            "route_seq": null,
            "job_name": "\u88fd\u7a0b3",
            "sourcing": "in-house",
            "full_name": "\u7ad9\u9ede\u4e00-\u88fd\u7a0b3-\u88fd\u7a0b3-in-house",
            "secondary_resource": {
                "machine": [
                    "RCID5"
                ]
            }
        },
        "JLB3": {
            "process_name": "\u7ad9\u9ede\u4e8c",
            "jlb_name": "\u88fd\u7a0b4",
            "index": "JLB3",
            "id": 68,
            "skill": 9,
            "_material": null,
            "primary_resource": {
                "machine": [
                    "RCID6"
                ]
            },
            "route_seq": null,
            "job_name": "\u88fd\u7a0b4",
            "sourcing": "in-house",
            "full_name": "\u7ad9\u9ede\u4e8c-\u88fd\u7a0b4-\u88fd\u7a0b4-in-house",
            "secondary_resource": {}
        },
        "JLB4": {
            "process_name": "\u7ad9\u9ede\u4e8c",
            "jlb_name": "\u88fd\u7a0b5",
            "index": "JLB4",
            "id": 69,
            "skill": 9,
            "_material": null,
            "primary_resource": {
                "machine": [
                    "RCID7"
                ]
            },
            "route_seq": null,
            "job_name": "\u88fd\u7a0b5",
            "sourcing": "in-house",
            "full_name": "\u7ad9\u9ede\u4e8c-\u88fd\u7a0b5-\u88fd\u7a0b5-in-house",
            "secondary_resource": {}
        },
        "JLB5": {
            "process_name": "\u7ad9\u9ede\u4e8c",
            "jlb_name": "\u88fd\u7a0b6",
            "index": "JLB5",
            "id": 70,
            "skill": 9,
            "_material": null,
            "primary_resource": {
                "machine": [
                    "RCID8"
                ]
            },
            "route_seq": null,
            "job_name": "\u88fd\u7a0b6",
            "sourcing": "in-house",
            "full_name": "\u7ad9\u9ede\u4e8c-\u88fd\u7a0b6-\u88fd\u7a0b6-in-house",
            "secondary_resource": {}
        },
        "JLB6": {
            "process_name": "\u7ad9\u9ede\u4e09",
            "jlb_name": "\u88fd\u7a0b7",
            "index": "JLB6",
            "id": 71,
            "skill": 9,
            "_material": null,
            "primary_resource": {
                "vendor": [
                    "RCID12"
                ]
            },
            "route_seq": null,
            "job_name": "\u88fd\u7a0b7",
            "sourcing": "out-sourcing",
            "full_name": "\u7ad9\u9ede\u4e09-\u88fd\u7a0b7-\u88fd\u7a0b7-out-sourcing",
            "secondary_resource": {}
        },
        "JLB7": {
            "process_name": "\u7ad9\u9ede\u4e09",
            "jlb_name": "\u88fd\u7a0b8",
            "index": "JLB7",
            "id": 72,
            "skill": 9,
            "_material": null,
            "primary_resource": {
                "operator": [
                    "RCID3"
                ]
            },
            "route_seq": null,
            "job_name": "\u88fd\u7a0b8",
            "sourcing": "in-house",
            "full_name": "\u7ad9\u9ede\u4e09-\u88fd\u7a0b8-\u88fd\u7a0b8-in-house",
            "secondary_resource": {
                "machine": [
                    "RCID10",
                    "RCID11"
                ]
            }
        }
    },
    "schedule": {
        "time": "2021-04-19 17:26",
        "res": {
            "RCID0": [
                [
                    "JID0",
                    "2021-04-20 08:00",
                    "2021-04-20 08:15",
                    1.0
                ],
                [
                    "JID1",
                    "2021-04-20 08:15",
                    "2021-04-20 08:45",
                    1.0
                ],
                [
                    "JID8",
                    "2021-04-20 08:45",
                    "2021-04-20 09:00",
                    1.0
                ],
                [
                    "JID9",
                    "2021-04-20 09:00",
                    "2021-04-20 09:30",
                    1.0
                ]
            ],
            "RCID1": [
                [
                    "JID2",
                    "2021-04-20 08:45",
                    "2021-04-20 09:08",
                    1.0
                ],
                [
                    "JID10",
                    "2021-04-20 09:30",
                    "2021-04-20 09:53",
                    1.0
                ]
            ],
            "RCID2": [],
            "RCID3": [
                [
                    "JID7",
                    "2021-04-22 10:53",
                    "2021-04-22 11:28",
                    1.0
                ],
                [
                    "JID15",
                    "2021-04-24 11:53",
                    "2021-04-24 13:28",
                    1.0
                ]
            ],
            "RCID4": [
                [
                    "JID1",
                    "2021-04-20 08:15",
                    "2021-04-20 08:45",
                    1.0
                ],
                [
                    "JID9",
                    "2021-04-20 09:00",
                    "2021-04-20 09:30",
                    1.0
                ]
            ],
            "RCID5": [
                [
                    "JID2",
                    "2021-04-20 08:45",
                    "2021-04-20 09:08",
                    1.0
                ],
                [
                    "JID10",
                    "2021-04-20 09:30",
                    "2021-04-20 09:53",
                    1.0
                ]
            ],
            "RCID6": [
                [
                    "JID3",
                    "2021-04-20 09:08",
                    "2021-04-20 09:37",
                    1.0
                ],
                [
                    "JID11",
                    "2021-04-20 09:53",
                    "2021-04-20 10:22",
                    1.0
                ]
            ],
            "RCID7": [
                [
                    "JID4",
                    "2021-04-20 09:08",
                    "2021-04-20 09:31",
                    1.0
                ],
                [
                    "JID12",
                    "2021-04-20 09:53",
                    "2021-04-20 10:16",
                    1.0
                ]
            ],
            "RCID8": [
                [
                    "JID5",
                    "2021-04-20 09:08",
                    "2021-04-20 09:53",
                    1.0
                ],
                [
                    "JID13",
                    "2021-04-20 09:53",
                    "2021-04-20 10:38",
                    1.0
                ]
            ],
            "RCID9": [],
            "RCID10": [
                [
                    "JID7",
                    "2021-04-22 10:53",
                    "2021-04-22 11:28",
                    1.0
                ],
                [
                    "JID15",
                    "2021-04-24 11:53",
                    "2021-04-24 13:28",
                    0.37
                ]
            ],
            "RCID11": [],
            "RCID12": [
                [
                    "JID6",
                    "2021-04-20 09:53",
                    "2021-04-22 10:53",
                    1.0
                ],
                [
                    "JID14",
                    "2021-04-22 10:53",
                    "2021-04-24 11:53",
                    1.0
                ]
            ],
            "RCID13": []
        }
    }
}