{
    "V3":{
        "project_db": ["order_id", "order_date", "project_name", "project_type", "due", "_product", "customer_id", "status", "updated_on"],
        "product_db": ["project_id", "product_name", "_jobID_list", "_process", "mother"],
        "process_db": ["process_name", "_job"],
        "job_db": ["product_id", "job_name", "process_name", "qty", "job_sequence", "sourcing", "est_time", "stdHourQty", "_material", "pre_product", "skill", "primary_resource", "secondary_resource", "mother", "job_parameter"],
        "resource_db": ["resource_name", "job_name", "resource_type", "working_type", "operator_skill", "working_day", "working_hours", "virtual_resource", "allow_overlapped", "capacity", "in_between"],
        "workingdays_db": ["calendar_name", "working_days"],
        "workinghours_db": ["hours_name", "working_hours","break_time"]
    }
}