{
    ".xlsx" : {
        "project_data":{
            "客戶名稱": "customer_id",
            "訂單單號": "order_id", 
            "單號": "project_name",
            "工令日期": "order_date", 
            "預交日期": "due",
            "機種編號": "product_name", 
            "製造數量": "qty",
            "大站名稱": "process_name",
            "工序編號": "job_sequence", 
            "工序流程": "job_name",
            "Sourcing": "sourcing", 
            "預估工時(分)": "est_time"
        },
        "workingdays":{
            "範本名稱": "calendar_name",
            "工作日": "working_days"
        },
        "workinghours":{
            "範本名稱": "hours_name",
            "工作時間": "working_hours", 
            "休息時間": "break_time"
        },
        "resource_data": {
            "人員或機台名稱": "resource_name",
            "類型": "resource_type",
            "製程能力": "job_name",
            "工作日範本": "calendar_name",
            "工作時間範本": "hours_name"
        },
        "outsourcing_data":{
            "廠商代碼": "resource_name",
            "Capacity": "capacity",
            "製程能力": "job_name"
        },
        "material_data": {
            "材料名稱": "material_name",
            "類別": "material_type", 
            "備料時間": "lead_time",
            "描述": "material_describtion",
            "庫存數量": "inventory",
            "最低庫存數量": "min_inventory",
            "單位": "unit"
        }
    },
    ".json" : {
        "project_data":{
            "job_id" : "index",
            "工作名稱": "job_name",
            "批號": "lot_nbr", 
            "工單編號" : "project_name", 
            "類別" : "project_type", 
            "預計結束": "plan_end_time", 
            "預計開始": "plan_start_time", 
            "製程名稱": "jlb_name", 
            "製品料號": "product_name", 
            "製程數量":"qty", 
            "實際結束":  "real_end_time", 
            "實際開始":"real_start_time", 
            "排定資源": "resource_id", 
            "途程": "route_seq", 
            "站點名稱": "process_name",
            "製品工序": "job_sequence",
            "預估工時": "est_time",
            "resourceID": "resource_name"
        },
        "resource_data":{
            "排定資源": "resource_id",
            "resourceID": "resource_name",
            "工作名稱": "job_name"
        },
        "workingdays":{
            "範本名稱": "calendar_name",
            "工作日": "working_days"
        },
        "workinghours":{
            "範本名稱": "hours_name",
            "工作時間": "working_hours", 
            "休息時間": "break_time"
        }
    }
}